[
    {
        "city": "Bishkek", 
        "admin": "Bishkek", 
        "country": "Kyrgyzstan", 
        "population_proper": "804212", 
        "iso2": "KG", 
        "capital": "primary", 
        "lat": "42.873056", 
        "lng": "74.600278", 
        "population": "837000"
    }, 
    {
        "city": "Osh", 
        "admin": "Osh", 
        "country": "Kyrgyzstan", 
        "population_proper": "200000", 
        "iso2": "KG", 
        "capital": "admin", 
        "lat": "40.515062", 
        "lng": "72.808264", 
        "population": "391277"
    }, 
    {
        "city": "Jalal-Abad", 
        "admin": "Jalal-Abad", 
        "country": "Kyrgyzstan", 
        "population_proper": "75700", 
        "iso2": "KG", 
        "capital": "admin", 
        "lat": "40.933333", 
        "lng": "73.0", 
        "population": "248899"
    }, 
    {
        "city": "Tokmok", 
        "admin": "Ch\u00fcy", 
        "country": "Kyrgyzstan", 
        "population_proper": "63047", 
        "iso2": "KG", 
        "capital": "", 
        "lat": "42.841939", 
        "lng": "75.301487", 
        "population": "112860"
    }, 
    {
        "city": "Kara-Balta", 
        "admin": "Ch\u00fcy", 
        "country": "Kyrgyzstan", 
        "population_proper": "62796", 
        "iso2": "KG", 
        "capital": "minor", 
        "lat": "42.814231", 
        "lng": "73.84813", 
        "population": "74133"
    }, 
    {
        "city": "Karakol", 
        "admin": "Ysyk-K\u00f6l", 
        "country": "Kyrgyzstan", 
        "population_proper": "56652", 
        "iso2": "KG", 
        "capital": "admin", 
        "lat": "42.490677", 
        "lng": "78.393619", 
        "population": "70171"
    }, 
    {
        "city": "Naryn", 
        "admin": "Naryn", 
        "country": "Kyrgyzstan", 
        "population_proper": "35707", 
        "iso2": "KG", 
        "capital": "admin", 
        "lat": "41.42866", 
        "lng": "75.991106", 
        "population": "52300"
    }, 
    {
        "city": "Balykchy", 
        "admin": "Ysyk-K\u00f6l", 
        "country": "Kyrgyzstan", 
        "population_proper": "40000", 
        "iso2": "KG", 
        "capital": "", 
        "lat": "42.460167", 
        "lng": "76.187089", 
        "population": "40527"
    }, 
    {
        "city": "Talas", 
        "admin": "Talas", 
        "country": "Kyrgyzstan", 
        "population_proper": "22120", 
        "iso2": "KG", 
        "capital": "admin", 
        "lat": "42.522766", 
        "lng": "72.242745", 
        "population": "35172"
    }, 
    {
        "city": "Toktogul", 
        "admin": "Jalal-Abad", 
        "country": "Kyrgyzstan", 
        "population_proper": "19336", 
        "iso2": "KG", 
        "capital": "minor", 
        "lat": "41.87079", 
        "lng": "72.940195", 
        "population": "26115"
    }, 
    {
        "city": "Tash-K\u00f6m\u00fcr", 
        "admin": "Jalal-Abad", 
        "country": "Kyrgyzstan", 
        "population_proper": "16355", 
        "iso2": "KG", 
        "capital": "", 
        "lat": "41.346121", 
        "lng": "72.217075", 
        "population": "23594"
    }, 
    {
        "city": "Cholpon-Ata", 
        "admin": "Ysyk-K\u00f6l", 
        "country": "Kyrgyzstan", 
        "population_proper": "9578", 
        "iso2": "KG", 
        "capital": "minor", 
        "lat": "42.649443", 
        "lng": "77.082252", 
        "population": "18595"
    }, 
    {
        "city": "At-Bashy", 
        "admin": "Naryn", 
        "country": "Kyrgyzstan", 
        "population_proper": "15226", 
        "iso2": "KG", 
        "capital": "minor", 
        "lat": "41.170171", 
        "lng": "75.810575", 
        "population": "15601"
    }, 
    {
        "city": "K\u00f6k-Janggak", 
        "admin": "Jalal-Abad", 
        "country": "Kyrgyzstan", 
        "population_proper": "14046", 
        "iso2": "KG", 
        "capital": "", 
        "lat": "41.03026", 
        "lng": "73.196133", 
        "population": "15000"
    }, 
    {
        "city": "Uch-Korgon", 
        "admin": "Batken", 
        "country": "Kyrgyzstan", 
        "population_proper": "", 
        "iso2": "KG", 
        "capital": "minor", 
        "lat": "40.228814", 
        "lng": "72.059235", 
        "population": ""
    }, 
    {
        "city": "Ormosh", 
        "admin": "Batken", 
        "country": "Kyrgyzstan", 
        "population_proper": "", 
        "iso2": "KG", 
        "capital": "minor", 
        "lat": "39.945911", 
        "lng": "71.260865", 
        "population": ""
    }, 
    {
        "city": "Kara-Dzhygach", 
        "admin": "Batken", 
        "country": "Kyrgyzstan", 
        "population_proper": "", 
        "iso2": "KG", 
        "capital": "minor", 
        "lat": "40.122088", 
        "lng": "72.092715", 
        "population": ""
    }, 
    {
        "city": "Kazarman", 
        "admin": "Jalal-Abad", 
        "country": "Kyrgyzstan", 
        "population_proper": "", 
        "iso2": "KG", 
        "capital": "minor", 
        "lat": "41.404519", 
        "lng": "74.028283", 
        "population": ""
    }, 
    {
        "city": "Baetov", 
        "admin": "Naryn", 
        "country": "Kyrgyzstan", 
        "population_proper": "", 
        "iso2": "KG", 
        "capital": "minor", 
        "lat": "41.266683", 
        "lng": "74.956983", 
        "population": ""
    }, 
    {
        "city": "\u00dcch-Terek", 
        "admin": "Jalal-Abad", 
        "country": "Kyrgyzstan", 
        "population_proper": "", 
        "iso2": "KG", 
        "capital": "minor", 
        "lat": "41.762186", 
        "lng": "73.200293", 
        "population": ""
    }, 
    {
        "city": "Kochkor", 
        "admin": "Naryn", 
        "country": "Kyrgyzstan", 
        "population_proper": "", 
        "iso2": "KG", 
        "capital": "minor", 
        "lat": "42.215516", 
        "lng": "75.75659", 
        "population": ""
    }, 
    {
        "city": "Toguz-Bulak", 
        "admin": "Batken", 
        "country": "Kyrgyzstan", 
        "population_proper": "", 
        "iso2": "KG", 
        "capital": "minor", 
        "lat": "39.843307", 
        "lng": "69.713548", 
        "population": ""
    }, 
    {
        "city": "Chaek", 
        "admin": "Naryn", 
        "country": "Kyrgyzstan", 
        "population_proper": "", 
        "iso2": "KG", 
        "capital": "minor", 
        "lat": "41.927684", 
        "lng": "74.51699", 
        "population": ""
    }, 
    {
        "city": "Ala-Buka", 
        "admin": "Jalal-Abad", 
        "country": "Kyrgyzstan", 
        "population_proper": "", 
        "iso2": "KG", 
        "capital": "minor", 
        "lat": "41.410501", 
        "lng": "71.486282", 
        "population": ""
    }, 
    {
        "city": "Suzak", 
        "admin": "Jalal-Abad", 
        "country": "Kyrgyzstan", 
        "population_proper": "", 
        "iso2": "KG", 
        "capital": "minor", 
        "lat": "40.898205", 
        "lng": "72.904815", 
        "population": ""
    }, 
    {
        "city": "Ak-Suu", 
        "admin": "Batken", 
        "country": "Kyrgyzstan", 
        "population_proper": "", 
        "iso2": "KG", 
        "capital": "minor", 
        "lat": "39.898769", 
        "lng": "69.371603", 
        "population": ""
    }, 
    {
        "city": "Kara-D\u00f6b\u00f6", 
        "admin": "Batken", 
        "country": "Kyrgyzstan", 
        "population_proper": "", 
        "iso2": "KG", 
        "capital": "minor", 
        "lat": "40.244284", 
        "lng": "72.044751", 
        "population": ""
    }, 
    {
        "city": "Lebedinovka", 
        "admin": "Ch\u00fcy", 
        "country": "Kyrgyzstan", 
        "population_proper": "", 
        "iso2": "KG", 
        "capital": "minor", 
        "lat": "42.884536", 
        "lng": "74.678194", 
        "population": ""
    }, 
    {
        "city": "Boz-Adyr", 
        "admin": "Batken", 
        "country": "Kyrgyzstan", 
        "population_proper": "", 
        "iso2": "KG", 
        "capital": "minor", 
        "lat": "39.998601", 
        "lng": "71.073377", 
        "population": ""
    }, 
    {
        "city": "Bazar-Korgon", 
        "admin": "Jalal-Abad", 
        "country": "Kyrgyzstan", 
        "population_proper": "", 
        "iso2": "KG", 
        "capital": "minor", 
        "lat": "41.037597", 
        "lng": "72.74586", 
        "population": ""
    }, 
    {
        "city": "Markaz", 
        "admin": "Batken", 
        "country": "Kyrgyzstan", 
        "population_proper": "", 
        "iso2": "KG", 
        "capital": "minor", 
        "lat": "40.240191", 
        "lng": "71.899832", 
        "population": ""
    }, 
    {
        "city": "Ch\u00fcy", 
        "admin": "Ch\u00fcy", 
        "country": "Kyrgyzstan", 
        "population_proper": "", 
        "iso2": "KG", 
        "capital": "minor", 
        "lat": "42.819734", 
        "lng": "75.282334", 
        "population": ""
    }, 
    {
        "city": "T\u00fcp", 
        "admin": "Ysyk-K\u00f6l", 
        "country": "Kyrgyzstan", 
        "population_proper": "", 
        "iso2": "KG", 
        "capital": "minor", 
        "lat": "42.727604", 
        "lng": "78.364764", 
        "population": ""
    }, 
    {
        "city": "B\u00f6k\u00f6nbaev", 
        "admin": "Ysyk-K\u00f6l", 
        "country": "Kyrgyzstan", 
        "population_proper": "", 
        "iso2": "KG", 
        "capital": "minor", 
        "lat": "42.117685", 
        "lng": "76.993317", 
        "population": ""
    }, 
    {
        "city": "Kerben", 
        "admin": "Jalal-Abad", 
        "country": "Kyrgyzstan", 
        "population_proper": "", 
        "iso2": "KG", 
        "capital": "minor", 
        "lat": "41.493987", 
        "lng": "71.758261", 
        "population": ""
    }, 
    {
        "city": "Khalmion", 
        "admin": "Batken", 
        "country": "Kyrgyzstan", 
        "population_proper": "", 
        "iso2": "KG", 
        "capital": "minor", 
        "lat": "40.212181", 
        "lng": "71.632745", 
        "population": ""
    }, 
    {
        "city": "Kyzyl-Suu", 
        "admin": "Ysyk-K\u00f6l", 
        "country": "Kyrgyzstan", 
        "population_proper": "", 
        "iso2": "KG", 
        "capital": "minor", 
        "lat": "42.342106", 
        "lng": "78.006443", 
        "population": ""
    }, 
    {
        "city": "Pokrovka", 
        "admin": "Talas", 
        "country": "Kyrgyzstan", 
        "population_proper": "", 
        "iso2": "KG", 
        "capital": "minor", 
        "lat": "42.736202", 
        "lng": "71.609818", 
        "population": ""
    }, 
    {
        "city": "Ak-Tatyr", 
        "admin": "Batken", 
        "country": "Kyrgyzstan", 
        "population_proper": "", 
        "iso2": "KG", 
        "capital": "minor", 
        "lat": "39.959897", 
        "lng": "70.484513", 
        "population": ""
    }, 
    {
        "city": "Kyzyl-Bulak", 
        "admin": "Batken", 
        "country": "Kyrgyzstan", 
        "population_proper": "", 
        "iso2": "KG", 
        "capital": "minor", 
        "lat": "40.051703", 
        "lng": "71.73726", 
        "population": ""
    }, 
    {
        "city": "Belovodskoe", 
        "admin": "Ch\u00fcy", 
        "country": "Kyrgyzstan", 
        "population_proper": "", 
        "iso2": "KG", 
        "capital": "minor", 
        "lat": "42.829442", 
        "lng": "74.108304", 
        "population": ""
    }, 
    {
        "city": "Kulundu", 
        "admin": "Batken", 
        "country": "Kyrgyzstan", 
        "population_proper": "", 
        "iso2": "KG", 
        "capital": "minor", 
        "lat": "40.106349", 
        "lng": "69.641274", 
        "population": ""
    }, 
    {
        "city": "Teploklyuchenka", 
        "admin": "Ysyk-K\u00f6l", 
        "country": "Kyrgyzstan", 
        "population_proper": "", 
        "iso2": "KG", 
        "capital": "minor", 
        "lat": "42.499477", 
        "lng": "78.527015", 
        "population": ""
    }, 
    {
        "city": "G\u00fclch\u00f6", 
        "admin": "Osh", 
        "country": "Kyrgyzstan", 
        "population_proper": "", 
        "iso2": "KG", 
        "capital": "minor", 
        "lat": "40.313799", 
        "lng": "73.444184", 
        "population": ""
    }, 
    {
        "city": "Sokuluk", 
        "admin": "Ch\u00fcy", 
        "country": "Kyrgyzstan", 
        "population_proper": "", 
        "iso2": "KG", 
        "capital": "minor", 
        "lat": "42.854006", 
        "lng": "74.302573", 
        "population": ""
    }, 
    {
        "city": "Kara-Suu", 
        "admin": "Osh", 
        "country": "Kyrgyzstan", 
        "population_proper": "", 
        "iso2": "KG", 
        "capital": "minor", 
        "lat": "40.704601", 
        "lng": "72.866662", 
        "population": ""
    }, 
    {
        "city": "Samarkandyk", 
        "admin": "Batken", 
        "country": "Kyrgyzstan", 
        "population_proper": "", 
        "iso2": "KG", 
        "capital": "minor", 
        "lat": "39.9981", 
        "lng": "70.54589", 
        "population": ""
    }, 
    {
        "city": "Aravan", 
        "admin": "Osh", 
        "country": "Kyrgyzstan", 
        "population_proper": "", 
        "iso2": "KG", 
        "capital": "minor", 
        "lat": "40.516084", 
        "lng": "72.499601", 
        "population": ""
    }, 
    {
        "city": "Ak-Say", 
        "admin": "Batken", 
        "country": "Kyrgyzstan", 
        "population_proper": "", 
        "iso2": "KG", 
        "capital": "minor", 
        "lat": "39.87438", 
        "lng": "70.522113", 
        "population": ""
    }, 
    {
        "city": "Kara-Bak", 
        "admin": "Batken", 
        "country": "Kyrgyzstan", 
        "population_proper": "", 
        "iso2": "KG", 
        "capital": "minor", 
        "lat": "40.16169", 
        "lng": "70.819588", 
        "population": ""
    }, 
    {
        "city": "Kara-Kulja", 
        "admin": "Osh", 
        "country": "Kyrgyzstan", 
        "population_proper": "", 
        "iso2": "KG", 
        "capital": "minor", 
        "lat": "40.632229", 
        "lng": "73.592489", 
        "population": ""
    }, 
    {
        "city": "Alga", 
        "admin": "Batken", 
        "country": "Kyrgyzstan", 
        "population_proper": "", 
        "iso2": "KG", 
        "capital": "minor", 
        "lat": "40.236304", 
        "lng": "71.498989", 
        "population": ""
    }, 
    {
        "city": "Tayan", 
        "admin": "Batken", 
        "country": "Kyrgyzstan", 
        "population_proper": "", 
        "iso2": "KG", 
        "capital": "minor", 
        "lat": "39.902602", 
        "lng": "71.108257", 
        "population": ""
    }, 
    {
        "city": "Tsentral\u2019noye", 
        "admin": "Batken", 
        "country": "Kyrgyzstan", 
        "population_proper": "", 
        "iso2": "KG", 
        "capital": "minor", 
        "lat": "40.02858", 
        "lng": "69.943934", 
        "population": ""
    }, 
    {
        "city": "Isfana", 
        "admin": "Batken", 
        "country": "Kyrgyzstan", 
        "population_proper": "", 
        "iso2": "KG", 
        "capital": "minor", 
        "lat": "39.838949", 
        "lng": "69.527605", 
        "population": ""
    }, 
    {
        "city": "Kyrgyz-Kyshtak", 
        "admin": "Batken", 
        "country": "Kyrgyzstan", 
        "population_proper": "", 
        "iso2": "KG", 
        "capital": "minor", 
        "lat": "40.310554", 
        "lng": "71.349659", 
        "population": ""
    }, 
    {
        "city": "Batken", 
        "admin": "Batken", 
        "country": "Kyrgyzstan", 
        "population_proper": "", 
        "iso2": "KG", 
        "capital": "admin", 
        "lat": "40.062587", 
        "lng": "70.819391", 
        "population": ""
    }, 
    {
        "city": "Kanysh-Kyya", 
        "admin": "Jalal-Abad", 
        "country": "Kyrgyzstan", 
        "population_proper": "", 
        "iso2": "KG", 
        "capital": "minor", 
        "lat": "41.765361", 
        "lng": "71.091813", 
        "population": ""
    }, 
    {
        "city": "Kant", 
        "admin": "Ch\u00fcy", 
        "country": "Kyrgyzstan", 
        "population_proper": "", 
        "iso2": "KG", 
        "capital": "minor", 
        "lat": "42.891064", 
        "lng": "74.850769", 
        "population": ""
    }, 
    {
        "city": "Ivanovka", 
        "admin": "Ch\u00fcy", 
        "country": "Kyrgyzstan", 
        "population_proper": "", 
        "iso2": "KG", 
        "capital": "minor", 
        "lat": "42.887781", 
        "lng": "75.085005", 
        "population": ""
    }, 
    {
        "city": "Ivanovo-Alekseyevka", 
        "admin": "Talas", 
        "country": "Kyrgyzstan", 
        "population_proper": "", 
        "iso2": "KG", 
        "capital": "minor", 
        "lat": "42.546885", 
        "lng": "72.209206", 
        "population": ""
    }, 
    {
        "city": "Andarak", 
        "admin": "Batken", 
        "country": "Kyrgyzstan", 
        "population_proper": "", 
        "iso2": "KG", 
        "capital": "minor", 
        "lat": "39.768489", 
        "lng": "69.463982", 
        "population": ""
    }, 
    {
        "city": "Eski-Nookat", 
        "admin": "Osh", 
        "country": "Kyrgyzstan", 
        "population_proper": "", 
        "iso2": "KG", 
        "capital": "minor", 
        "lat": "40.271326", 
        "lng": "72.61306", 
        "population": ""
    }, 
    {
        "city": "Massy", 
        "admin": "Jalal-Abad", 
        "country": "Kyrgyzstan", 
        "population_proper": "", 
        "iso2": "KG", 
        "capital": "minor", 
        "lat": "41.063997", 
        "lng": "72.637476", 
        "population": ""
    }, 
    {
        "city": "Leninpol\u2019", 
        "admin": "Talas", 
        "country": "Kyrgyzstan", 
        "population_proper": "", 
        "iso2": "KG", 
        "capital": "minor", 
        "lat": "42.492985", 
        "lng": "71.923598", 
        "population": ""
    }, 
    {
        "city": "Buzhum", 
        "admin": "Batken", 
        "country": "Kyrgyzstan", 
        "population_proper": "", 
        "iso2": "KG", 
        "capital": "minor", 
        "lat": "40.004789", 
        "lng": "70.83522", 
        "population": ""
    }, 
    {
        "city": "Kemin", 
        "admin": "Ch\u00fcy", 
        "country": "Kyrgyzstan", 
        "population_proper": "", 
        "iso2": "KG", 
        "capital": "minor", 
        "lat": "42.784584", 
        "lng": "75.68917", 
        "population": ""
    }, 
    {
        "city": "Beshkent", 
        "admin": "Batken", 
        "country": "Kyrgyzstan", 
        "population_proper": "", 
        "iso2": "KG", 
        "capital": "minor", 
        "lat": "40.030833", 
        "lng": "69.818611", 
        "population": ""
    }, 
    {
        "city": "Chek", 
        "admin": "Batken", 
        "country": "Kyrgyzstan", 
        "population_proper": "", 
        "iso2": "KG", 
        "capital": "minor", 
        "lat": "40.109343", 
        "lng": "70.846357", 
        "population": ""
    }, 
    {
        "city": "Kyzyl-Adyr", 
        "admin": "Talas", 
        "country": "Kyrgyzstan", 
        "population_proper": "", 
        "iso2": "KG", 
        "capital": "minor", 
        "lat": "42.619806", 
        "lng": "71.589102", 
        "population": ""
    }, 
    {
        "city": "Kayyngdy", 
        "admin": "Ch\u00fcy", 
        "country": "Kyrgyzstan", 
        "population_proper": "", 
        "iso2": "KG", 
        "capital": "minor", 
        "lat": "42.824688", 
        "lng": "73.675846", 
        "population": ""
    }, 
    {
        "city": "Korgon", 
        "admin": "Batken", 
        "country": "Kyrgyzstan", 
        "population_proper": "", 
        "iso2": "KG", 
        "capital": "minor", 
        "lat": "39.88899", 
        "lng": "69.935593", 
        "population": ""
    }, 
    {
        "city": "Orozbekov", 
        "admin": "Batken", 
        "country": "Kyrgyzstan", 
        "population_proper": "", 
        "iso2": "KG", 
        "capital": "minor", 
        "lat": "40.056888", 
        "lng": "71.669455", 
        "population": ""
    }, 
    {
        "city": "Katran", 
        "admin": "Batken", 
        "country": "Kyrgyzstan", 
        "population_proper": "", 
        "iso2": "KG", 
        "capital": "minor", 
        "lat": "39.844337", 
        "lng": "70.014742", 
        "population": ""
    }
]